<svg width="44" height="44" viewBox="0 0 44 44" fill="none" xmlns="http://www.w3.org/2000/svg">
<circle cx="22" cy="22" r="21" stroke="#73D0EB" stroke-width="1.5" stroke-linecap="round" stroke-linejoin="round"/>
<path d="M24.3333 9H13.6667C12.9594 9 12.2811 9.28095 11.781 9.78105C11.281 10.2811 11 10.9594 11 11.6667V33C11 33.7072 11.281 34.3855 11.781 34.8856C12.2811 35.3857 12.9594 35.6667 13.6667 35.6667H29.6667C30.3739 35.6667 31.0522 35.3857 31.5523 34.8856C32.0524 34.3855 32.3333 33.7072 32.3333 33V17M24.3333 9L32.3333 17M24.3333 9V17H32.3333M27 23.6667H16.3333M27 29H16.3333M19 18.3333H16.3333" stroke="#73D0EB" stroke-width="1.5" stroke-linecap="round" stroke-linejoin="round"/>
</svg>
