<svg width="210" height="194" viewBox="0 0 210 194" fill="none" xmlns="http://www.w3.org/2000/svg">
<circle cx="32" cy="162" r="32" fill="#1DC098"/>
<circle cx="178" cy="32" r="32" fill="#036FE4"/>
<g filter="url(#filter0_bi_516_2986)">
<path d="M69.3731 6.79C82.5287 3.21313 96.5088 0 104.875 0C113.241 0 127.221 3.21313 140.377 6.79C153.836 10.4275 167.404 14.7319 175.382 17.3387C178.718 18.4403 181.675 20.4605 183.914 23.1673C186.153 25.874 187.583 29.1575 188.04 32.6405C195.267 86.9241 178.498 127.155 158.152 153.769C149.525 165.154 139.237 175.18 127.634 183.512C123.621 186.395 119.37 188.93 114.927 191.09C111.532 192.691 107.882 194 104.875 194C101.868 194 98.2306 192.691 94.8234 191.09C90.3798 188.93 86.1287 186.395 82.1164 183.512C70.5132 175.18 60.2257 165.154 51.5978 153.769C31.2521 127.155 14.4832 86.9241 21.7097 32.6405C22.1666 29.1575 23.5969 25.874 25.836 23.1673C28.0752 20.4605 31.0325 18.4403 34.3682 17.3387C45.9499 13.5413 57.6216 10.024 69.3731 6.79Z" fill="white" fill-opacity="0.03"/>
<path d="M140.246 7.27248L140.247 7.27268C153.693 10.9068 167.251 15.208 175.226 17.8139C178.472 18.886 181.35 20.852 183.529 23.486C185.708 26.1202 187.1 29.3158 187.545 32.7055L187.545 32.7065C194.752 86.8439 178.03 126.944 157.755 153.466L157.754 153.467C149.156 164.813 138.905 174.803 127.342 183.106L127.342 183.106C123.354 185.972 119.128 188.492 114.711 190.639C111.326 192.234 107.763 193.5 104.875 193.5C101.987 193.5 98.4359 192.234 95.0382 190.638C90.6216 188.492 86.3962 185.972 82.4082 183.106L82.4081 183.106C70.8454 174.803 60.594 164.812 51.9963 153.467L51.995 153.466C31.7202 126.944 14.9983 86.8439 22.2053 32.7065L22.2054 32.7055C22.6502 29.3158 24.0421 26.1202 26.2213 23.486C28.4004 20.8518 31.2784 18.8857 34.5247 17.8136C46.0982 14.0189 57.7616 10.5041 69.5048 7.27235C82.6716 3.69244 96.5869 0.5 104.875 0.5C113.163 0.5 127.079 3.69253 140.246 7.27248Z" stroke="white" stroke-opacity="0.1"/>
</g>
<g filter="url(#filter1_i_516_2986)">
<path d="M76.5566 24.46C87.0966 21.5838 98.2971 19 105 19C111.703 19 122.903 21.5838 133.443 24.46C144.226 27.385 155.097 30.8462 161.489 32.9425C164.161 33.8283 166.53 35.4528 168.324 37.6293C170.118 39.8059 171.264 42.4462 171.63 45.247C177.42 88.8978 163.985 121.248 147.685 142.649C140.772 151.805 132.53 159.867 123.234 166.566C120.019 168.885 116.613 170.923 113.053 172.66C110.333 173.947 107.409 175 105 175C102.591 175 99.6766 173.947 96.9469 172.66C93.3867 170.923 89.9808 168.885 86.7663 166.566C77.47 159.866 69.228 151.804 62.3155 142.649C46.0149 121.248 32.5801 88.8978 38.3698 45.247C38.7359 42.4462 39.8817 39.8059 41.6757 37.6293C43.4697 35.4528 45.839 33.8283 48.5115 32.9425C57.7905 29.8889 67.1416 27.0606 76.5566 24.46Z" fill="white" fill-opacity="0.01"/>
</g>
<path d="M133.312 24.9424L133.313 24.9426C144.083 27.8641 154.943 31.3221 161.332 33.4173C163.914 34.2735 166.204 35.8435 167.938 37.9473C169.673 40.0514 170.78 42.6039 171.134 45.3118L171.135 45.3127C176.905 88.8179 163.517 121.038 147.287 142.347L147.286 142.348C140.403 151.463 132.197 159.49 122.941 166.161L122.941 166.161C119.751 168.462 116.371 170.485 112.838 172.209C110.128 173.491 107.29 174.5 105 174.5C102.71 174.5 99.8833 173.491 97.1632 172.209C93.6298 170.485 90.2493 168.462 87.0588 166.161L87.0586 166.161C77.803 159.49 69.5969 151.463 62.7145 142.348L62.7132 142.347C46.4833 121.038 33.095 88.8179 38.8654 45.3127L38.8655 45.3118C39.2195 42.6039 40.3273 40.0514 42.0615 37.9473C43.7956 35.8435 46.0854 34.2735 48.668 33.4173C57.939 30.3664 67.2821 27.5405 76.6889 24.9422C87.2401 22.0629 98.3755 19.5 105 19.5C111.625 19.5 122.76 22.063 133.312 24.9424Z" stroke="white" stroke-opacity="0.1"/>
<g filter="url(#filter2_bi_516_2986)">
<path d="M63.3596 95.9271C60.9408 93.4705 60.9404 89.5276 63.3587 87.0704C65.8311 84.5582 69.8817 84.5574 72.3551 87.0685L90.0084 104.99L90.0021 104.997L138.645 55.5711C141.118 53.0584 145.17 53.0584 147.643 55.5711C150.06 58.0276 150.061 61.9693 147.643 64.4259L97.1342 115.752C93.217 119.733 86.7988 119.734 82.8807 115.754L63.3596 95.9271Z" fill="white" fill-opacity="0.2"/>
</g>
<defs>
<filter id="filter0_bi_516_2986" x="-66" y="-86" width="341.75" height="366" filterUnits="userSpaceOnUse" color-interpolation-filters="sRGB">
<feFlood flood-opacity="0" result="BackgroundImageFix"/>
<feGaussianBlur in="BackgroundImage" stdDeviation="43"/>
<feComposite in2="SourceAlpha" operator="in" result="effect1_backgroundBlur_516_2986"/>
<feBlend mode="normal" in="SourceGraphic" in2="effect1_backgroundBlur_516_2986" result="shape"/>
<feColorMatrix in="SourceAlpha" type="matrix" values="0 0 0 0 0 0 0 0 0 0 0 0 0 0 0 0 0 0 127 0" result="hardAlpha"/>
<feOffset/>
<feGaussianBlur stdDeviation="34"/>
<feComposite in2="hardAlpha" operator="arithmetic" k2="-1" k3="1"/>
<feColorMatrix type="matrix" values="0 0 0 0 1 0 0 0 0 1 0 0 0 0 1 0 0 0 0.05 0"/>
<feBlend mode="normal" in2="shape" result="effect2_innerShadow_516_2986"/>
</filter>
<filter id="filter1_i_516_2986" x="37" y="19" width="138" height="158" filterUnits="userSpaceOnUse" color-interpolation-filters="sRGB">
<feFlood flood-opacity="0" result="BackgroundImageFix"/>
<feBlend mode="normal" in="SourceGraphic" in2="BackgroundImageFix" result="shape"/>
<feColorMatrix in="SourceAlpha" type="matrix" values="0 0 0 0 0 0 0 0 0 0 0 0 0 0 0 0 0 0 127 0" result="hardAlpha"/>
<feOffset dx="3" dy="3"/>
<feGaussianBlur stdDeviation="1"/>
<feComposite in2="hardAlpha" operator="arithmetic" k2="-1" k3="1"/>
<feColorMatrix type="matrix" values="0 0 0 0 0 0 0 0 0 0 0 0 0 0 0 0 0 0 0.15 0"/>
<feBlend mode="normal" in2="shape" result="effect1_innerShadow_516_2986"/>
</filter>
<filter id="filter2_bi_516_2986" x="11.5449" y="3.6875" width="187.911" height="165.051" filterUnits="userSpaceOnUse" color-interpolation-filters="sRGB">
<feFlood flood-opacity="0" result="BackgroundImageFix"/>
<feGaussianBlur in="BackgroundImage" stdDeviation="25"/>
<feComposite in2="SourceAlpha" operator="in" result="effect1_backgroundBlur_516_2986"/>
<feBlend mode="normal" in="SourceGraphic" in2="effect1_backgroundBlur_516_2986" result="shape"/>
<feColorMatrix in="SourceAlpha" type="matrix" values="0 0 0 0 0 0 0 0 0 0 0 0 0 0 0 0 0 0 127 0" result="hardAlpha"/>
<feOffset dy="2"/>
<feGaussianBlur stdDeviation="1"/>
<feComposite in2="hardAlpha" operator="arithmetic" k2="-1" k3="1"/>
<feColorMatrix type="matrix" values="0 0 0 0 1 0 0 0 0 1 0 0 0 0 1 0 0 0 0.3 0"/>
<feBlend mode="normal" in2="shape" result="effect2_innerShadow_516_2986"/>
</filter>
</defs>
</svg>
