<svg width="44" height="44" viewBox="0 0 44 44" fill="none" xmlns="http://www.w3.org/2000/svg">
<circle cx="22" cy="22" r="21" stroke="#73D0EB" stroke-width="1.5" stroke-linecap="round" stroke-linejoin="round"/>
<path d="M15.0769 12.4L7 22L15.0769 31.6M28.9231 12.4L37 22L28.9231 31.6M24.3077 10L19.6923 34" stroke="#73D0EB" stroke-width="1.5" stroke-linecap="round" stroke-linejoin="round"/>
</svg>
